{
  "processes" : [
    {
      "deployment_type": "local",
      "dir" : "./processes/master/",
      "process_type": "ruby",
      "name" : "Master",
      "schedules" : [
        {
          "name" : "main_schedule",
          "when" : "0 20 * * *",
          "params": {
            "{{login}}" : null
          }
        }
      ]
    }
  ],
  "params": {
    "login" : {
      "USERNAME" : "developer@beyond12.org",
      "PASSWORD" : "sdasda"
    }
  }
}  

